{
  "_links": {
    "root": {
      "href": "/"
    },
    "self": {
      "href": "/scans/be020ec7-c8f3-49c8-b21e-ad6ad168de31/findings"
    },
    "help": {
      "href": "https://help.veracode.com/reader/tS9CaFwL4_lbIEWWomsJoA/ovfZGgu96UINQxIuTqRDwg"
    }
  },
  "scan_id": "be020ec7-c8f3-49c8-b21e-ad6ad168de31",
  "scan_status": "SUCCESS",
  "message": "Scan successful. Results size: 1292 bytes",
  "modules": [
    "app-debug.apk"
  ],
  "modules_count": 1,
  "findings": [
    {
      "title": "MainActivity",
      "issue_id": 1000,
      "gob": "B",
      "severity": 3,
      "issue_type_id": "android_manifest",
      "issue_type": "Improper Export of Android Application Components",
      "cwe_id": "926",
      "display_text": "\u003cspan\u003eThe application does not enable using the embedded DEX file for app launching. This means the app is not taking all possible protections from tampering.\u003c/span\u003e \u003cspan\u003eEnabling this feature can protect your app from tampering while stored on-device, but can slow down app launch times. To enable it, set the \u0027android:useEmbeddedDex\u0027 attribute in the application tag in the AndroidManifest.xml to true.\u003c/span\u003e \u003cspan\u003eReferences: \u003ca href\u003d\"https://cwe.mitre.org/data/definitions/926.html\"\u003eCWE\u003c/a\u003e\u003c/span\u003e",
      "files": {
        "source_file": {
          "file": "dev/olog/gitlabci/MainActivity.kt",
          "line": 1,
          "function_name": "UNKNOWN",
          "qualified_function_name": "UNKNOWN",
          "function_prototype": "UNKNOWN",
          "scope": "UNKNOWN"
        }
      },
      "flaw_match": {
        "procedure_hash": "255732036",
        "prototype_hash": "0",
        "flaw_hash": "255732036",
        "flaw_hash_count": 1,
        "flaw_hash_ordinal": 1,
        "cause_hash": "0",
        "cause_hash_count": 0,
        "cause_hash_ordinal": 0,
        "cause_hash2": "0",
        "cause_hash2_ordinal": "0"
      },
      "flaw_details_link": "https://downloads.veracode.com/securityscan/cwe/v4/java/926.html"
    }
  ],
  "pipeline_scan": "21.11.1-0",
  "dev_stage": "DEVELOPMENT"
}